logic_dumps/clk100k_soft_mirrored.vcd
$comment 
  OLS Java Client
$end
$date 
  Nov 10, 2015 1:22:42 PM
$end
$version 
  VCD exporter v1.1
$end
$timescale 
  1 ns
$end
$scope 
  module logic
$end
$var wire 1 ! Channel-0 $end
$var wire 1 " Channel-1 $end
$var wire 1 # Channel-2 $end
$var wire 1 $ Channel-3 $end
$var wire 1 % Channel-4 $end
$var wire 1 & Channel-5 $end
$var wire 1 ' Channel-6 $end
$var wire 1 ( Channel-7 $end
$upscope $end
$enddefinitions $end
$dumpvars
x!
x"
x#
x$
x%
x&
x'
x(
$end
#0
0!
0"
1#
0$
1%
0&
0'
0(
#1965
0%
#2290
0#
#6970
1%
#7285
1#
#11975
0%
#12275
0#
#16980
1%
#17265
1#
#17270
1"
#17275
0"
#21980
0%
#22260
0#
#26985
1%
#27250
1#
#27255
1"
#27260
0"
#31990
0%
#32245
0#
#36995
1%
#37235
1#
#37240
1"
#37245
0"
#42000
0%
#42225
0#
#47000
1%
#47220
1#
#52005
0%
#52210
0#
#57010
1%
#57200
1#
#62015
0%
#62195
0#
#67015
1%
#67185
1#
#67190
1"
#67195
0"
#72020
0%
#72180
0#
#77025
1%
#77360
1#
#82030
0%
#82355
0#
#87035
1%
#87345
1#
#87350
1"
#87355
0"
#92035
0%
#92340
0#
#97040
1%
#97330
1#
#97335
1"
#97340
0"
#102045
0%
#102325
0#
#107050
1%
#107315
1#
#107320
1"
#107325
0"
#112055
0%
#112305
0#
#117055
1%
#117295
1#
#122060
0%
#122290
0#
