logic_dumps/tightloop_clock_bitbang.vcd
$comment 
  OLS Java Client
$end
$date 
  Nov 10, 2015 12:38:35 PM
$end
$version 
  VCD exporter v1.1
$end
$timescale 
  1 ns
$end
$scope 
  module logic
$end
$var wire 1 ! Channel-0 $end
$var wire 1 " Channel-1 $end
$var wire 1 # Channel-2 $end
$var wire 1 $ Channel-3 $end
$var wire 1 % Channel-4 $end
$var wire 1 & Channel-5 $end
$var wire 1 ' Channel-6 $end
$var wire 1 ( Channel-7 $end
$upscope $end
$enddefinitions $end
$dumpvars
x!
x"
x#
x$
x%
x&
x'
x(
$end
#0
0!
0"
0#
0$
0%
0&
0'
0(
#12205
1#
#12210
1"
#12215
0"
#12275
0#
#12350
1#
#12355
1"
#12360
0"
#12365
0#
#12370
1#
#12375
1"
#12385
0"
#12420
0#
#12490
1#
#12500
1"
#12505
0"
#12510
0#
#12515
1#
#12520
1"
#12525
0"
#12565
0#
#12635
1#
#12640
1"
#12650
0"
#12665
1"
#12670
0"
#12690
1"
#12695
0"
#12710
0#
#12780
1#
#12785
1"
#12795
0"
#12810
1"
#12815
0"
#12830
1"
#12835
0"
#12855
0#
#12925
1#
#12930
1"
#12940
0"
#12950
1"
#12960
0"
#12975
1"
#12980
0"
#12995
0#
#13070
1#
#13075
1"
#13080
0"
#13085
0#
#13090
1#
#13095
1"
#13105
0"
#13120
1"
#13125
0"
#13140
0#
#13215
1"
1#
#13225
0"
#13230
0#
#13235
1#
#13240
1"
#13250
0"
#13260
1"
#13270
0"
#13285
0#
#13355
1#
#13360
1"
#13370
0"
#13385
1"
#13390
0"
#13405
1"
#13415
0"
#13430
0#
#13500
1#
#13505
1"
#13515
0"
#13525
1"
#13535
0"
#13550
1"
#13555
0"
#13570
1"
#13575
0"
0#
#13645
1#
#13650
1"
#13660
0"
#13670
1"
#13680
0"
#13695
1"
#13700
0"
#13715
0#
#13790
1#
#13795
1"
#13800
0"
#13805
0#
#13810
1#
#13815
1"
#13825
0"
#13835
1"
#13845
0"
#13860
0#
#13930
1#
#13935
1"
#13945
0"
#13950
0#
#13955
1#
#13960
1"
#13970
0"
#13980
1"
#13990
0"
#14000
1"
#14005
0"
0#
#14075
1#
#14080
1"
#14090
0"
#14105
1"
#14110
0"
#14125
1"
#14135
0"
#14145
1"
#14150
0"
0#
#14220
1#
#14225
1"
#14235
0"
#14245
1"
#14255
0"
#14270
1"
#14280
0"
#14290
1"
#14295
0"
0#
#14365
1#
#14370
1"
#14380
0"
#14390
1"
#14400
0"
#14415
1"
#14420
0"
#14435
1"
0#
#14440
0"
#14510
1#
#14515
1"
#14520
0"
#14525
0#
#14530
1#
#14535
1"
#14545
0"
#14555
1"
#14565
0"
#14575
1"
#14580
0#
#14585
0"
#14650
1#
#14655
1"
#14665
0"
#14670
0#
#14675
1#
#14680
1"
#14690
0"
#14700
1"
#14710
0"
#14720
1"
#14725
0#
#14730
0"
#14795
1#
#14800
1"
#14810
0"
#14825
1"
#14830
0"
#14845
1"
#14855
0"
#14865
1"
#14870
0"
0#
#14940
1#
#14945
1"
#14955
0"
#14965
1"
#14975
0"
#14990
1"
#15000
0"
#15010
1"
#15015
0"
0#
#15085
1#
#15090
1"
#15100
0"
#15110
1"
#15120
0"
#15130
1"
#15140
0"
#15150
1"
#15155
0#
#15160
0"
#15230
1#
#15235
1"
#15240
0"
#15245
0#
#15250
1#
#15255
1"
#15265
0"
#15275
1"
#15285
0"
#15295
1"
#15300
0#
#15305
0"
#15370
1#
#15375
1"
#15385
0"
#15390
0#
#15395
1#
#15400
1"
#15410
0"
#15420
1"
#15430
0"
#15440
1"
#15445
0"
0#
#15515
1#
#15520
1"
#15530
0"
#15545
1"
#15550
0"
#15565
1"
#15575
0"
#15585
1"
#15590
0"
0#
#15660
1#
#15665
1"
#15675
0"
#15690
1"
#15695
0"
#15710
1"
#15720
0"
#15730
1"
#15735
0"
0#
#15805
1#
#15810
1"
#15820
0"
#15830
1"
#15840
0"
#15855
1"
#15860
0"
#15875
0#
#15950
1#
#15955
1"
#15960
0"
#15965
0#
#15970
1#
#15975
1"
#15985
0"
#15995
1"
#16005
0"
#16015
1"
#16020
0#
#16025
0"
#16095
1"
1#
#16105
0"
#16110
0#
#16115
1#
#16120
1"
#16130
0"
#16140
1"
#16150
0"
#16160
1"
#16165
0"
0#
#16235
1#
#16240
1"
#16250
0"
#16265
1"
#16270
0"
#16285
1"
#16295
0"
#16305
1"
#16310
0"
0#
#16380
1#
#16385
1"
#16395
0"
#16405
1"
#16415
0"
#16430
1"
#16440
0"
#16450
1"
#16455
0"
0#
#16525
1#
#16530
1"
#16540
0"
#16550
1"
#16560
0"
#16570
1"
#16580
0"
#16590
1"
#16600
0"
0#
#16670
1#
#16675
1"
#16680
0"
#16685
0#
#16690
1#
#16695
1"
#16705
0"
#16715
1"
#16725
0"
#16735
1"
#16740
0#
#16745
0"
#16815
1"
1#
#16825
0"
#16830
0#
#16835
1#
#16840
1"
#16850
0"
#16860
1"
#16870
0"
#16880
1"
#16885
0#
#16890
0"
#16955
1#
#16960
1"
#16970
0"
#16985
1"
#16990
0"
#17005
1"
#17015
0"
#17025
1"
#17030
0"
0#
#17100
1#
#17105
1"
#17115
0"
#17125
1"
#17135
0"
#17150
1"
#17160
0"
#17170
1"
#17175
0"
0#
#17245
1#
#17250
1"
#17260
0"
#17270
1"
#17280
0"
#17295
1"
#17300
0"
#17315
0#
#17390
1#
#17395
1"
#17400
0"
#17405
0#
#17410
1#
#17415
1"
#17425
0"
#17435
1"
#17445
0"
#17460
0#
#17530
1#
#17535
1"
#17545
0"
#17550
0#
#17555
1#
#17560
1"
#17570
0"
#17580
1"
#17590
0"
#17600
1"
#17605
0"
0#
#17675
1#
#17680
1"
#17690
0"
#17705
1"
#17710
0"
#17725
1"
#17735
0"
#17745
1"
#17750
0"
0#
#17820
1#
#17825
1"
#17835
0"
#17845
1"
#17855
0"
#17870
1"
#17880
0"
#17890
1"
#17895
0"
0#
#17965
1#
#17970
1"
#17980
0"
#17990
1"
#18000
0"
#18010
1"
#18020
0"
#18030
1"
#18035
0#
#18040
0"
#18110
1#
#18115
1"
#18120
0"
#18125
0#
#18130
1#
#18135
1"
#18145
0"
#18155
1"
#18165
0"
#18175
1"
#18180
0#
#18185
0"
#18250
1#
#18255
1"
#18265
0"
#18270
0#
#18275
1#
#18280
1"
#18290
0"
#18300
1"
#18310
0"
#18320
1"
#18325
0#
#18330
0"
#18395
1#
#18400
1"
#18410
0"
#18425
1"
#18430
0"
#18445
1"
#18455
0"
#18465
1"
#18470
0"
0#
#18540
1#
#18545
1"
#18555
0"
#18565
1"
#18575
0"
#18590
1"
#18600
0"
#18610
1"
#18615
0"
0#
#18685
1#
#18690
1"
#18700
0"
#18710
1"
#18720
0"
#18730
1"
#18740
0"
#18755
1"
0#
#18760
0"
#18830
1#
#18835
1"
#18840
0"
#18845
0#
#18850
1#
#18855
1"
#18865
0"
#18875
1"
#18885
0"
#18895
1"
#18900
0#
#18905
0"
#18975
1"
1#
#18985
0"
#18990
0#
#18995
1#
#19000
1"
#19010
0"
#19020
1"
#19030
0"
#19040
1"
#19045
0"
0#
#19115
1#
#19120
1"
#19130
0"
#19145
1"
#19150
0"
#19165
1"
#19175
0"
#19185
1"
#19190
0"
0#
#19260
1#
#19265
1"
#19275
0"
#19285
1"
#19295
0"
#19310
1"
#19320
0"
#19330
1"
#19335
0"
0#
#19405
1#
#19410
1"
#19420
0"
#19430
1"
#19440
0"
#19450
1"
#19460
0"
#19475
1"
0#
#19480
0"
#19550
1#
#19555
1"
#19560
0"
#19565
0#
#19570
1#
#19575
1"
#19585
0"
#19595
1"
#19605
0"
#19615
1"
#19620
0#
#19625
0"
#19690
1#
#19695
1"
#19705
0"
#19710
0#
#19715
1#
#19720
1"
#19730
0"
#19740
1"
#19750
0"
#19760
1"
#19765
0#
#19770
0"
#19835
1#
#19840
1"
#19850
0"
#19865
1"
#19870
0"
#19885
1"
#19895
0"
#19905
1"
#19910
0"
0#
#19980
1#
#19985
1"
#19995
0"
#20005
1"
#20015
0"
#20030
1"
#20040
0"
#20050
1"
#20055
0"
0#
#20125
1#
#20130
1"
#20140
0"
#20150
1"
#20160
0"
#20170
1"
#20180
0"
#20190
1"
#20195
0#
#20200
0"
#20270
1#
#20275
1"
#20280
0"
#20285
0#
#20290
1#
#20295
1"
#20305
0"
#20315
1"
#20325
0"
#20335
1"
#20340
0#
#20345
0"
#20410
1#
#20415
1"
#20425
0"
#20430
0#
#20435
1#
#20440
1"
#20450
0"
#20460
1"
#20470
0"
#20480
1"
#20485
0"
0#
#20555
1#
#20560
1"
#20570
0"
#20585
1"
#20590
0"
#20605
1"
#20615
0"
#20630
0#
#20700
1#
#20705
1"
#20715
0"
#20725
1"
#20735
0"
#20750
1"
#20760
0"
#20770
1"
#20775
0"
0#
#20845
1#
#20850
1"
#20860
0"
#20870
1"
#20880
0"
#20890
1"
#20900
0"
#20910
1"
#20915
0#
#20920
0"
#20990
1#
#20995
1"
#21000
0"
#21005
0#
#21010
1#
#21015
1"
#21025
0"
#21035
1"
#21045
0"
#21055
1"
#21060
0#
#21065
0"
#21130
1#
#21135
1"
#21145
0"
#21150
0#
#21155
1#
#21160
1"
#21170
0"
#21180
1"
#21190
0"
#21200
1"
#21205
0#
#21210
0"
#21275
1#
#21280
1"
#21290
0"
#21305
1"
#21310
0"
#21325
1"
#21335
0"
#21345
1"
#21350
0"
0#
#21420
1#
#21425
1"
#21435
0"
#21445
1"
#21455
0"
#21470
1"
#21480
0"
#21490
1"
#21495
0"
0#
#21565
1#
#21570
1"
#21580
0"
#21590
1"
#21600
0"
#21610
1"
#21620
0"
#21630
1"
#21635
0#
#21640
0"
#21710
1#
#21715
1"
#21720
0"
#21725
0#
#21730
1#
#21735
1"
#21745
0"
#21755
1"
#21765
0"
#21775
1"
#21780
0#
#21785
0"
#21850
1#
#21855
1"
#21865
0"
#21870
0#
#21875
1#
#21880
1"
#21890
0"
#21900
1"
#21910
0"
#21920
1"
#21925
0#
#21930
0"
#21995
1#
#22000
1"
#22010
0"
#22025
1"
#22030
0"
#22045
1"
#22055
0"
#22065
1"
#22070
0"
0#
#22140
1#
#22145
1"
#22155
0"
#22165
1"
#22175
0"
#22190
1"
#22200
0"
#22210
1"
#22215
0"
0#
#22285
1#
#22290
1"
#22300
0"
#22310
1"
#22320
0"
#22330
1"
#22340
0"
#22350
1"
#22355
0#
#22360
0"
#22430
1#
#22435
1"
#22440
0"
#22445
0#
#22450
1#
#22455
1"
#22465
0"
#22475
1"
#22485
0"
#22495
1"
#22500
0#
#22505
0"
#22570
1#
#22575
1"
#22585
0"
#22590
0#
#22595
1#
#22600
1"
#22610
0"
#22620
1"
#22630
0"
#22640
1"
#22645
0#
#22650
0"
#22715
1#
#22720
1"
1$
#22725
0$
#22730
0"
#22745
1"
#22750
0"
#22760
1"
#22775
0"
#22785
1"
#22790
0#
#22795
0"
#22860
1#
#22865
1"
1$
#22870
0$
#22875
0"
#22885
1"
#22895
0"
#22905
1"
#22920
0"
#22925
1"
#22935
0"
0#
#23005
1#
#23010
1"
#23020
0"
#23030
1"
#23040
0"
#23050
1"
#23065
0"
#23070
1"
#23075
0#
#23080
0"
#23150
1#
#23155
1"
#23160
0"
#23165
0#
#23170
1#
#23175
1"
#23185
0"
#23195
1"
#23205
0"
#23215
1"
#23220
0#
#23225
0"
#23290
1#
#23295
1"
#23305
0"
#23310
0#
#23315
1#
#23320
1"
#23330
0"
#23340
1"
#23350
0"
#23360
1"
#23365
0#
#23370
0"
#23435
1#
#23440
1"
#23450
0"
#23465
1"
#23470
0"
#23480
1"
#23495
0"
#23505
1"
#23510
0#
#23515
0"
#23580
1#
#23585
1"
#23595
0"
#23605
1"
#23615
0"
#23625
1"
#23640
0"
#23645
1"
#23655
0"
0#
#23725
1#
#23730
1"
#23740
0"
#23750
1"
#23760
0"
#23770
1"
#23785
0"
#23790
1"
#23795
0#
#23800
0"
#23870
1#
#23875
1"
#23880
0"
#23885
0#
#23890
1#
#23895
1"
#23905
0"
#23915
1"
#23925
0"
#23935
1"
#23940
0#
#23945
0"
#24010
1#
#24015
1"
#24025
0"
#24030
0#
#24035
1#
#24040
1"
#24050
0"
#24060
1"
#24070
0"
#24080
1"
#24085
0#
#24090
0"
#24155
1#
#24160
1"
#24170
0"
#24185
1"
#24190
0"
#24200
1"
#24215
0"
#24225
1"
#24230
0#
#24235
0"
#24300
1#
#24305
1"
#24315
0"
#24325
1"
#24335
0"
#24345
1"
#24360
0"
#24370
1"
#24375
0"
0#
#24445
1#
#24450
1"
#24460
0"
#24470
1"
#24480
0"
#24495
1"
#24500
0"
#24515
0#
#24590
1#
#24595
1"
#24600
0"
#24605
0#
#24610
1#
#24615
1"
#24625
0"
#24635
1"
#24645
0"
#24660
0#
#24730
1#
#24735
1"
#24745
0"
#24750
0#
#24755
1#
#24760
1"
#24770
0"
#24780
1"
#24790
0"
#24800
1"
#24805
0"
0#
#24875
1#
#24880
1"
#24890
0"
#24905
1"
#24910
0"
#24925
1"
#24935
0"
#24945
1"
#24950
0"
0#
#25020
1#
#25025
1"
#25035
0"
#25045
1"
#25055
0"
#25070
1"
#25080
0"
#25090
1"
#25095
0"
0#
#25165
1#
#25170
1"
#25180
0"
#25190
1"
#25200
0"
#25215
1"
#25220
0"
#25235
1"
0#
#25240
0"
#25310
1#
#25315
1"
#25320
0"
#25325
0#
#25330
1#
#25335
1"
#25345
0"
#25355
1"
#25365
0"
#25380
1"
0#
#25385
0"
#25450
1#
#25455
1"
#25465
0"
#25470
0#
#25475
1#
#25480
1"
#25490
0"
#25500
1"
#25510
0"
#25520
1"
#25525
0"
0#
#25595
1#
#25600
1"
#25610
0"
#25625
1"
#25630
0"
#25645
1"
#25655
0"
#25665
1"
#25670
0"
0#
#25740
1#
#25745
1"
#25755
0"
#25765
1"
#25775
0"
#25790
1"
#25800
0"
#25810
1"
#25815
0"
0#
#25885
1#
#25890
1"
#25900
0"
#25910
1"
#25920
0"
#25930
1"
#25940
0"
#25950
1"
#25955
0#
#25960
0"
#26030
1#
#26035
1"
#26040
0"
#26045
0#
#26050
1#
#26055
1"
#26065
0"
#26075
1"
#26085
0"
#26095
1"
#26100
0#
#26105
0"
#26170
1#
#26175
1"
#26185
0"
#26190
0#
#26195
1#
#26200
1"
#26210
0"
#26220
1"
#26230
0"
#26240
1"
#26245
0#
#26250
0"
#26315
1#
#26320
1"
#26330
0"
#26345
1"
#26350
0"
#26365
1"
#26375
0"
#26385
1"
#26390
0"
0#
#26460
1#
#26465
1"
#26475
0"
#26485
1"
#26495
0"
#26510
1"
#26520
0"
#26530
1"
#26535
0"
0#
#26605
1#
#26610
1"
#26620
0"
#26630
1"
#26640
0"
#26650
1"
#26660
0"
#26670
1"
#26675
0#
#26680
0"
#26750
1#
#26755
1"
#26760
0"
#26765
0#
#26770
1#
#26775
1"
#26785
0"
#26795
1"
#26805
0"
#26815
1"
#26820
0#
#26825
0"
#26890
1#
#26895
1"
#26905
0"
#26910
0#
#26915
1#
#26920
1"
#26930
0"
#26940
1"
#26950
0"
#26960
1"
#26965
0#
#26970
0"
#27035
1#
#27040
1"
#27050
0"
#27065
1"
#27070
0"
#27085
1"
#27095
0"
#27105
1"
#27110
0"
0#
#27180
1#
#27185
1"
#27195
0"
#27205
1"
#27215
0"
#27230
1"
#27240
0"
#27250
1"
#27255
0"
0#
#27325
1#
#27330
1"
#27340
0"
#27350
1"
#27360
0"
#27370
1"
#27380
0"
#27390
1"
#27395
0#
#27400
0"
#27470
1#
#27475
1"
#27480
0"
#27485
0#
#27490
1#
#27495
1"
#27505
0"
#27515
1"
#27525
0"
#27535
1"
#27540
0"
0#
#27610
1#
#27615
1"
#27625
0"
#27630
0#
#27635
1#
#27640
1"
#27650
0"
#27660
1"
#27670
0"
#27680
1"
#27685
0#
#27690
0"
#27755
1#
#27760
1"
#27770
0"
#27785
1"
#27790
0"
#27805
1"
#27815
0"
#27825
1"
#27830
0"
0#
#27900
1#
#27905
1"
#27915
0"
#27925
1"
#27935
0"
#27950
1"
#27960
0"
#27970
1"
#27975
0"
0#
#28045
1#
#28050
1"
#28060
0"
#28070
1"
#28080
0"
#28090
1"
#28100
0"
#28110
1"
#28115
0#
#28120
0"
#28190
1#
#28195
1"
#28200
0"
#28205
0#
#28210
1#
#28215
1"
#28225
0"
#28235
1"
#28245
0"
#28255
1"
#28260
0#
#28265
0"
#28330
1#
#28335
1"
#28345
0"
#28350
0#
#28355
1#
#28360
1"
#28370
0"
#28380
1"
#28390
0"
#28400
1"
#28405
0#
#28410
0"
#28475
1#
#28480
1"
#28490
0"
#28505
1"
#28510
0"
#28525
1"
#28535
0"
#28545
1"
#28550
0"
0#
#28620
1#
#28625
1"
#28635
0"
#28645
1"
#28655
0"
#28670
1"
#28680
0"
#28690
1"
#28695
0"
0#
#28765
1#
#28770
1"
#28780
0"
#28790
1"
#28800
0"
#28810
1"
#28820
0"
#28830
1"
#28835
0#
#28840
0"
#28910
1#
#28915
1"
#28920
0"
#28925
0#
#28930
1#
#28935
1"
#28945
0"
#28955
1"
#28965
0"
#28975
1"
#28980
0#
#28985
0"
#29050
1#
#29055
1"
#29065
0"
#29070
0#
#29075
1#
#29080
1"
#29090
0"
#29100
1"
#29110
0"
#29120
1"
#29125
0"
0#
#29195
1#
#29200
1"
#29210
0"
#29225
1"
#29230
0"
#29245
1"
#29255
0"
#29265
1"
#29270
0"
0#
#29340
1#
#29345
1"
#29355
0"
#29365
1"
#29375
0"
#29390
1"
#29400
0"
#29410
1"
#29415
0"
0#
#29485
1#
#29490
1"
#29500
0"
#29510
1"
#29520
0"
#29530
1"
#29540
0"
#29550
1"
#29555
0#
#29560
0"
#29630
1#
#29635
1"
#29640
0"
#29645
0#
#29650
1#
#29655
1"
#29665
0"
#29675
1"
#29685
0"
#29695
1"
#29700
0#
#29705
0"
#29770
1#
#29775
1"
#29785
0"
#29790
0#
#29795
1#
#29800
1"
#29810
0"
#29820
1"
#29830
0"
#29840
1"
#29845
0"
0#
#29915
1#
#29920
1"
#29930
0"
#29945
1"
#29950
0"
#29965
1"
#29975
0"
#29985
1"
#29990
0"
0#
#30060
1#
#30065
1"
#30075
0"
#30085
1"
#30095
0"
#30110
1"
#30120
0"
#30130
1"
#30135
0"
0#
#30205
1#
#30210
1"
#30220
0"
#30230
1"
#30240
0"
#30250
1"
#30260
0"
#30270
1"
#30275
0#
#30280
0"
#30350
1#
#30355
1"
#30360
0"
#30365
0#
#30370
1#
#30375
1"
#30385
0"
#30395
1"
#30405
0"
#30415
1"
#30420
0#
#30425
0"
#30490
1#
#30495
1"
#30505
0"
#30510
0#
#30515
1#
#30520
1"
#30530
0"
#30540
1"
#30550
0"
#30560
1"
#30565
0#
#30570
0"
#30635
1#
#30640
1"
#30650
0"
#30665
1"
#30670
0"
#30685
1"
#30695
0"
#30705
1"
#30710
0"
0#
#30780
1#
#30785
1"
#30795
0"
#30805
1"
#30815
0"
#30830
1"
#30840
0"
#30850
1"
#30855
0"
0#
#30925
1#
#30930
1"
#30940
0"
#30950
1"
#30960
0"
#30970
1"
#30980
0"
#30990
1"
#30995
0#
#31000
0"
#31070
1#
#31075
1"
#31080
0"
#31085
0#
#31090
1#
#31095
1"
#31105
0"
#31115
1"
#31125
0"
#31135
1"
#31140
0#
#31145
0"
#31210
1#
#31215
1"
#31225
0"
#31230
0#
#31235
1#
#31240
1"
#31250
0"
#31260
1"
#31270
0"
#31280
1"
#31285
0#
#31290
0"
#31355
1#
#31360
1"
#31370
0"
#31385
1"
#31390
0"
#31405
1"
#31415
0"
#31425
1"
#31430
0"
0#
#31500
1#
#31505
1"
#31515
0"
#31525
1"
#31535
0"
#31545
1"
#31560
0"
#31570
1"
#31575
0"
0#
#31645
1#
#31650
1"
#31660
0"
#31670
1"
#31680
0"
#31690
1"
#31700
0"
#31710
1"
#31715
0#
#31720
0"
#31790
1#
#31795
1"
#31800
0"
#31805
0#
#31810
1#
#31815
1"
#31825
0"
#31835
1"
#31845
0"
#31855
1"
#31860
0#
#31865
0"
#31930
1#
#31935
1"
#31945
0"
#31950
0#
#31955
1#
#31960
1"
#31970
0"
#31980
1"
#31990
0"
#32000
1"
#32005
0"
0#
#32075
1#
#32080
1"
#32090
0"
#32105
1"
#32110
0"
#32125
1"
#32135
0"
#32145
1"
#32150
0"
0#
#32220
1#
#32225
1"
#32235
0"
#32245
1"
#32255
0"
#32270
1"
#32280
0"
#32295
0#
#32365
1#
#32370
1"
#32380
0"
#32390
1"
#32400
0"
#32410
1"
#32420
0"
#32430
1"
#32435
0#
#32440
0"
#32510
1#
#32515
1"
#32520
0"
#32525
0#
#32530
1#
#32535
1"
#32545
0"
#32555
1"
#32565
0"
#32575
1"
#32580
0#
#32585
0"
#32650
1#
#32655
1"
#32665
0"
#32670
0#
#32675
1#
#32680
1"
#32690
0"
#32700
1"
#32710
0"
#32720
1"
#32725
0#
#32730
0"
#32795
1#
#32800
1"
#32810
0"
#32825
1"
#32830
0"
#32845
1"
#32855
0"
#32865
1"
#32870
0"
0#
#32940
1#
#32945
1"
#32955
0"
#32965
1"
#32975
0"
#32985
1"
#33000
0"
#33010
1"
#33015
0"
0#
#33085
1#
#33090
1"
#33100
0"
#33110
1"
#33120
0"
#33130
1"
#33140
0"
#33150
1"
#33155
0#
#33160
0"
#33230
1#
#33235
1"
#33240
0"
#33245
0#
#33250
1#
#33255
1"
#33265
0"
#33275
1"
#33285
0"
#33295
1"
#33300
0#
#33305
0"
#33370
1#
#33375
1"
#33385
0"
#33390
0#
#33395
1#
#33400
1"
#33410
0"
#33420
1"
#33430
0"
#33440
1"
#33445
0#
#33450
0"
#33515
1#
#33520
1"
#33530
0"
#33545
1"
#33550
0"
#33565
1"
#33575
0"
#33585
1"
#33590
0"
0#
#33660
1#
#33665
1"
#33675
0"
#33685
1"
#33695
0"
#33710
1"
#33720
0"
#33730
1"
#33735
0"
0#
#33805
1#
#33810
1"
#33820
0"
#33830
1"
#33840
0"
#33850
1"
#33860
0"
#33870
1"
#33875
0#
#33880
0"
#33950
1#
#33955
1"
#33960
0"
#33965
0#
#33970
1#
#33975
1"
#33985
0"
#33995
1"
#34005
0"
#34015
1"
#34020
0#
#34025
0"
#34090
1#
#34095
1"
#34105
0"
#34110
0#
#34115
1#
#34120
1"
#34130
0"
#34140
1"
#34150
0"
#34160
1"
#34165
0#
#34170
0"
#34235
1#
#34240
1"
#34250
0"
#34265
1"
#34270
0"
#34285
1"
#34295
0"
#34305
1"
#34310
0#
#34315
0"
#34380
1#
#34385
1"
#34395
0"
#34405
1"
#34415
0"
#34425
1"
#34440
0"
#34445
1"
#34455
0"
0#
#34525
1#
#34530
1"
#34540
0"
#34550
1"
#34560
0"
#34570
1"
#34580
0"
#34590
1"
#34595
0#
#34600
0"
#34670
1#
#34675
1"
#34680
0"
#34685
0#
#34690
1#
#34695
1"
#34705
0"
#34715
1"
#34725
0"
#34735
1"
#34740
0#
#34745
0"
#34810
1#
#34815
1"
#34825
0"
#34830
0#
#34835
1#
#34840
1"
#34850
0"
#34860
1"
#34870
0"
#34880
1"
#34885
0#
#34890
0"
#34955
1#
#34960
1"
#34970
0"
#34985
1"
#34990
0"
#35005
1"
#35015
0"
#35025
1"
#35030
0"
0#
#35100
1#
#35105
1"
#35115
0"
#35125
1"
#35135
0"
#35150
1"
#35160
0"
#35170
1"
#35175
0"
0#
#35245
1#
#35250
1"
#35260
0"
#35270
1"
#35280
0"
#35290
1"
#35300
0"
#35310
1"
#35315
0#
#35320
0"
#35390
1#
#35395
1"
#35400
0"
#35405
0#
#35410
1#
#35415
1"
#35425
0"
#35435
1"
#35445
0"
#35455
1"
#35460
0#
#35465
0"
#35530
1#
#35535
1"
#35545
0"
#35550
0#
#35555
1#
#35560
1"
#35570
0"
#35580
1"
#35590
0"
#35600
1"
#35605
0#
#35610
0"
#35675
1#
#35680
1"
#35690
0"
#35705
1"
#35710
0"
#35725
1"
#35735
0"
#35745
1"
#35750
0"
0#
#35820
1#
#35825
1"
#35835
0"
#35845
1"
#35855
0"
#35870
1"
#35880
0"
#35890
1"
#35895
0"
0#
#35965
1#
#35970
1"
#35980
0"
#35990
1"
#36000
0"
#36010
1"
#36020
0"
#36030
1"
#36035
0#
#36040
0"
#36110
1#
#36115
1"
#36120
0"
#36125
0#
#36130
1#
#36135
1"
#36145
0"
#36155
1"
#36165
0"
#36175
1"
#36180
0#
#36185
0"
#36250
1#
#36255
1"
#36265
0"
#36270
0#
#36275
1#
#36280
1"
#36290
0"
#36300
1"
#36310
0"
#36320
1"
#36325
0#
#36330
0"
#36395
1#
#36400
1"
#36410
0"
#36425
1"
#36430
0"
#36445
1"
#36455
0"
#36465
1"
#36470
0"
0#
#36540
1#
#36545
1"
#36555
0"
#36565
1"
#36575
0"
#36585
1"
#36600
0"
#36610
1"
#36615
0"
0#
#36685
1#
#36690
1"
#36700
0"
#36710
1"
#36720
0"
#36730
1"
#36740
0"
#36750
1"
#36755
0#
#36760
0"
#36830
1#
#36835
1"
#36840
0"
#36845
0#
#36850
1#
#36855
1"
#36865
0"
#36875
1"
#36885
0"
#36895
1"
#36900
0#
#36905
0"
#36970
1#
#36975
1"
#36985
0"
#36990
0#
#36995
1#
#37000
1"
#37010
0"
#37020
1"
#37030
0"
#37040
1"
#37045
0#
#37050
0"
#37115
1#
#37120
1"
#37130
0"
#37145
1"
#37150
0"
#37165
1"
#37175
0"
#37185
1"
#37190
0"
0#
#37260
1#
#37265
1"
#37275
0"
#37285
1"
#37295
0"
#37310
1"
#37320
0"
#37330
1"
#37335
0"
0#
#37405
1#
#37410
1"
#37420
0"
#37430
1"
#37440
0"
#37450
1"
#37460
0"
#37470
1"
#37475
0#
#37480
0"
#37550
1#
#37555
1"
#37560
0"
#37565
0#
#37570
1#
#37575
1"
#37585
0"
#37595
1"
#37605
0"
#37615
1"
#37620
0#
#37625
0"
#37690
1#
#37695
1"
#37705
0"
#37710
0#
#37715
1#
#37720
1"
#37730
0"
#37740
1"
#37750
0"
#37760
1"
#37765
0#
#37770
0"
#37835
1#
#37840
1"
#37850
0"
#37865
1"
#37870
0"
#37885
1"
#37895
0"
#37905
1"
#37910
0"
0#
#37980
1#
#37985
1"
#37995
0"
#38005
1"
#38015
0"
#38025
1"
#38040
0"
#38050
1"
#38055
0"
0#
#38125
1#
#38130
1"
#38140
0"
#38150
1"
#38160
0"
#38170
1"
#38180
0"
#38190
1"
#38195
0#
#38200
0"
#38270
1#
#38275
1"
#38280
0"
#38285
0#
#38290
1#
#38295
1"
#38305
0"
#38315
1"
#38325
0"
#38335
1"
#38340
0#
#38345
0"
#38410
1#
#38415
1"
#38425
0"
#38430
0#
#38435
1#
#38440
1"
#38450
0"
#38455
1"
#38470
0"
#38480
1"
#38485
0#
#38490
0"
#38555
1#
#38560
1"
1$
#38565
0$
#38570
0"
#38585
1"
#38590
0"
#38600
1"
#38615
0"
#38625
1"
#38630
0#
#38635
0"
#38700
1#
#38705
1"
1$
#38710
0$
#38715
0"
#38725
1"
#38735
0"
#38745
1"
#38760
0"
#38765
1"
#38775
0"
0#
#38845
1#
#38850
1"
#38860
0"
#38870
1"
#38880
0"
#38890
1"
#38905
0"
#38910
1"
#38915
0#
#38920
0"
#38990
1#
#38995
1"
#39000
0"
#39005
0#
#39010
1#
#39015
1"
#39025
0"
#39035
1"
#39045
0"
#39055
1"
#39060
0#
#39065
0"
#39130
1#
#39135
1"
#39145
0"
#39150
0#
#39155
1#
#39160
1"
#39170
0"
#39175
1"
#39190
0"
#39200
1"
#39205
0#
#39210
0"
#39275
1#
#39280
1"
#39290
0"
#39305
1"
#39310
0"
#39320
1"
#39335
0"
#39345
1"
#39350
0#
#39355
0"
#39420
1#
#39425
1"
#39435
0"
#39445
1"
#39455
0"
#39465
1"
#39480
0"
#39485
1"
#39495
0"
0#
#39565
1#
#39570
1"
#39580
0"
#39590
1"
#39600
0"
#39610
1"
#39625
0"
#39630
1"
#39635
0#
#39640
0"
#39710
1#
#39715
1"
#39720
0"
#39725
0#
#39730
1#
#39735
1"
#39745
0"
#39755
1"
#39765
0"
#39775
1"
#39780
0#
#39785
0"
#39850
1#
#39855
1"
#39865
0"
#39870
0#
#39875
1#
#39880
1"
#39890
0"
#39900
1"
#39910
0"
#39920
1"
#39925
0#
#39930
0"
#39995
1#
#40000
1"
#40010
0"
#40025
1"
#40030
0"
#40040
1"
#40055
0"
#40065
1"
#40070
0"
0#
#40140
1#
#40145
1"
#40155
0"
#40165
1"
#40175
0"
#40190
1"
#40195
0"
#40215
0#
#40285
1#
#40290
1"
#40295
0"
#40310
1"
#40320
0"
#40335
1"
#40340
0"
#40355
0#
#40430
1#
#40435
1"
#40440
0"
#40445
0#
#40450
1#
#40455
1"
#40465
0"
#40480
1"
#40485
0"
#40500
0#
#40570
1#
#40575
1"
#40585
0"
#40590
0#
#40595
1#
#40600
1"
#40610
0"
#40620
1"
#40630
0"
#40640
1"
#40645
0"
0#
#40715
1#
#40720
1"
#40730
0"
#40745
1"
#40750
0"
#40765
1"
#40775
0"
#40790
0#
#40860
1#
#40865
1"
#40875
0"
#40885
1"
#40895
0"
#40910
1"
#40920
0"
#40930
1"
#40935
0"
0#
#41005
1#
#41010
1"
#41020
0"
#41030
1"
#41040
0"
#41055
1"
#41060
0"
#41075
0#
#41150
1#
#41155
1"
#41160
0"
#41165
0#
#41170
1#
#41175
1"
#41185
0"
#41200
1"
#41205
0"
#41220
0#
#41290
1#
#41295
1"
#41305
0"
#41310
0#
#41315
1#
#41320
1"
#41330
0"
#41340
1"
#41350
0"
#41360
1"
#41365
0#
#41370
0"
#41435
1#
#41440
1"
#41450
0"
